<?xml version="1.0" encoding="iso-8859-1"?>
<!-- Generator: Adobe Illustrator 18.1.1, SVG Export Plug-In . SVG Version: 6.00 Build 0)  -->
<svg version="1.1" id="Capa_1" xmlns="http://www.w3.org/2000/svg" xmlns:xlink="http://www.w3.org/1999/xlink" x="0px" y="0px"
	 viewBox="0 0 20.976 20.976" style="enable-background:new 0 0 20.976 20.976;" xml:space="preserve">
<g>
	<g>
		<path style="fill:#030104;" d="M1.349,11.016c0-0.001-0.001-0.002-0.001-0.003c-0.013-0.052-0.045-0.089-0.083-0.089
			s-0.07,0.037-0.083,0.089c0,0.001-0.001,0.002-0.001,0.003c-0.066,0.302-0.11,0.622-0.143,1.034
			c-0.027,0.354-0.041,0.697-0.04,1.021c0,0.332,0.013,0.676,0.04,1.023c0.032,0.414,0.076,0.732,0.142,1.033
			c0,0.002,0.001,0.004,0.001,0.004c0.006,0.023,0.016,0.043,0.028,0.057c0.003,0.004,0.005,0.006,0.008,0.01
			c0.014,0.014,0.029,0.021,0.046,0.021s0.033-0.008,0.047-0.021c0.003-0.004,0.005-0.006,0.008-0.01
			c0.012-0.014,0.022-0.033,0.028-0.057c0,0,0.001-0.002,0.001-0.004c0.065-0.301,0.109-0.619,0.142-1.033
			c0.027-0.348,0.041-0.691,0.04-1.021c0.001-0.326-0.012-0.67-0.039-1.023C1.459,11.638,1.415,11.318,1.349,11.016z"/>
		<path style="fill:#030104;" d="M0.206,12.095l-0.001-0.002c-0.007-0.029-0.026-0.053-0.049-0.053
			c-0.022,0-0.041,0.023-0.048,0.053l-0.001,0.002c-0.039,0.178-0.065,0.363-0.084,0.605C0.007,12.909,0,13.11,0,13.3
			c0,0.195,0.007,0.396,0.023,0.602c0.019,0.242,0.045,0.428,0.083,0.605l0.001,0.002c0.003,0.014,0.009,0.025,0.017,0.033
			c0.001,0.002,0.003,0.004,0.004,0.006c0.008,0.008,0.017,0.014,0.027,0.014s0.02-0.006,0.027-0.014
			c0.002-0.002,0.003-0.004,0.005-0.006c0.007-0.008,0.013-0.02,0.016-0.033l0.001-0.002c0.039-0.178,0.064-0.363,0.083-0.605
			c0.016-0.205,0.024-0.406,0.023-0.6c0.001-0.191-0.007-0.393-0.023-0.602C0.271,12.458,0.245,12.273,0.206,12.095z"/>
		<path style="fill:#030104;" d="M2.528,10.193c0-0.001-0.002-0.002-0.002-0.004c-0.018-0.071-0.063-0.124-0.117-0.124
			s-0.099,0.053-0.116,0.124c0,0.002-0.001,0.003-0.002,0.004c-0.093,0.424-0.155,0.87-0.2,1.449
			c-0.038,0.496-0.057,0.977-0.055,1.43c-0.001,0.465,0.018,0.947,0.056,1.434c0.045,0.578,0.106,1.023,0.199,1.447
			c0,0,0.002,0.002,0.002,0.004c0.008,0.033,0.022,0.059,0.04,0.08c0.004,0.006,0.007,0.008,0.012,0.012
			c0.019,0.02,0.041,0.031,0.065,0.031s0.046-0.012,0.065-0.031c0.004-0.004,0.008-0.006,0.012-0.012
			c0.018-0.021,0.031-0.047,0.04-0.08c0-0.002,0.001-0.004,0.002-0.004c0.092-0.424,0.154-0.869,0.199-1.447
			c0.038-0.486,0.057-0.969,0.056-1.432c0.001-0.455-0.017-0.936-0.055-1.432C2.683,11.063,2.621,10.617,2.528,10.193z"/>
		<path style="fill:#030104;" d="M3.805,9.826c0-0.001-0.002-0.003-0.002-0.005c-0.02-0.079-0.069-0.138-0.13-0.138
			c-0.06,0-0.109,0.059-0.129,0.138c0,0.002-0.002,0.004-0.002,0.005c-0.104,0.47-0.172,0.967-0.222,1.608
			c-0.042,0.551-0.063,1.086-0.062,1.59c-0.001,0.516,0.02,1.051,0.063,1.592c0.05,0.641,0.118,1.139,0.221,1.607
			c0,0.002,0.002,0.004,0.002,0.006c0.009,0.036,0.024,0.065,0.044,0.088c0.004,0.006,0.008,0.01,0.013,0.014
			c0.021,0.021,0.045,0.035,0.072,0.035s0.052-0.014,0.073-0.035c0.005-0.004,0.009-0.008,0.013-0.014
			c0.02-0.023,0.035-0.053,0.044-0.088c0-0.002,0.001-0.004,0.002-0.006c0.103-0.469,0.17-0.967,0.221-1.607
			c0.042-0.541,0.063-1.076,0.062-1.59c0.001-0.506-0.019-1.041-0.062-1.592C3.977,10.793,3.908,10.295,3.805,9.826z"/>
		<path style="fill:#030104;" d="M5.177,8.144c0-0.002-0.003-0.004-0.003-0.006c-0.024-0.1-0.087-0.173-0.163-0.173
			c-0.075,0-0.138,0.074-0.162,0.173c0,0.002-0.002,0.004-0.003,0.006c-0.13,0.591-0.216,1.215-0.279,2.022
			c-0.053,0.693-0.079,1.365-0.077,1.999c-0.001,0.648,0.025,1.32,0.078,2.002c0.063,0.805,0.149,1.43,0.278,2.02
			c0,0.002,0.003,0.004,0.003,0.008c0.011,0.045,0.03,0.082,0.055,0.111c0.005,0.008,0.01,0.01,0.016,0.018
			c0.026,0.025,0.057,0.043,0.091,0.043c0.034,0,0.065-0.018,0.091-0.043c0.006-0.008,0.011-0.01,0.017-0.018
			c0.024-0.029,0.043-0.066,0.055-0.111c0-0.004,0.003-0.006,0.003-0.008c0.129-0.59,0.214-1.215,0.278-2.02
			c0.052-0.682,0.079-1.354,0.079-2c0.001-0.636-0.024-1.308-0.078-2C5.393,9.359,5.307,8.735,5.177,8.144z"/>
		<path style="fill:#030104;" d="M17.013,7.84c-0.79-1.897-2.659-3.231-4.842-3.231c-1.806,0-3.396,0.914-4.338,2.303v9.454
			c0.076,0,0.152,0,0.229,0c4.262,0,9.993,0,10.265,0c0.719,0,1.081-0.432,1.081-0.432c0.961-0.854,1.568-2.098,1.568-3.484
			C20.976,10.112,19.257,8.181,17.013,7.84z"/>
		<path style="fill:#030104;" d="M6.679,7.098c0-0.002-0.003-0.005-0.003-0.008C6.649,6.978,6.578,6.896,6.493,6.896
			c-0.084,0-0.155,0.082-0.182,0.194c0,0.003-0.003,0.005-0.003,0.008C6.162,7.762,6.065,8.464,5.994,9.373
			c-0.06,0.778-0.089,1.534-0.087,2.248c-0.001,0.73,0.028,1.486,0.088,2.252c0.071,0.906,0.167,1.609,0.313,2.273
			c0,0.002,0.003,0.004,0.003,0.008c0.013,0.051,0.034,0.092,0.062,0.125c0.006,0.01,0.012,0.012,0.019,0.02
			c0.03,0.029,0.064,0.049,0.102,0.049c0.039,0,0.073-0.02,0.103-0.049c0.007-0.008,0.012-0.01,0.018-0.02
			c0.028-0.033,0.049-0.074,0.062-0.125c0-0.004,0.003-0.006,0.003-0.008c0.145-0.664,0.241-1.367,0.313-2.273
			c0.059-0.766,0.088-1.521,0.088-2.248c0.002-0.717-0.027-1.473-0.087-2.251C6.923,8.463,6.826,7.762,6.679,7.098z"/>
	</g>
</g>
<g>
</g>
<g>
</g>
<g>
</g>
<g>
</g>
<g>
</g>
<g>
</g>
<g>
</g>
<g>
</g>
<g>
</g>
<g>
</g>
<g>
</g>
<g>
</g>
<g>
</g>
<g>
</g>
<g>
</g>
</svg>
