<?xml version="1.0" encoding="utf-8"?>
<!-- Generator: Adobe Illustrator 16.0.0, SVG Export Plug-In . SVG Version: 6.00 Build 0)  -->
<!DOCTYPE svg PUBLIC "-//W3C//DTD SVG 1.1//EN" "http://www.w3.org/Graphics/SVG/1.1/DTD/svg11.dtd">
<svg version="1.1" id="Layer_1" xmlns="http://www.w3.org/2000/svg" xmlns:xlink="http://www.w3.org/1999/xlink" x="0px" y="0px"
	 width="84px" height="84px" viewBox="0 0 84 84" enable-background="new 0 0 84 84" xml:space="preserve">
<radialGradient id="SVGID_1_" cx="746.6201" cy="713.6201" r="35" gradientTransform="matrix(1 0 0 1 -704.6201 -664.6201)" gradientUnits="userSpaceOnUse">
	<stop  offset="0.4" style="stop-color:#231F20;stop-opacity:0.5"/>
	<stop  offset="0.8" style="stop-color:#0B090A;stop-opacity:0.1"/>
	<stop  offset="0.9" style="stop-color:#070606;stop-opacity:0.03"/>
	<stop  offset="1" style="stop-color:#000000;stop-opacity:0"/>
</radialGradient>
<path fill="url(#SVGID_1_)" d="M42,14c19.336,0,35,15.664,35,35S61.336,84,42,84S7,68.336,7,49S22.664,14,42,14z"/>
<path d="M42,14c15.468,0,28,12.532,28,28S57.468,70,42,70S14,57.468,14,42S26.532,14,42,14z"/>
</svg>
